Expt_5/run.vcd
$date
  Thu Jan 28 14:33:13 2016
$end
$version
  GHDL v0
$end
$timescale
  1 fs
$end
$var reg 1 ! x0 $end
$var reg 1 " x1 $end
$var reg 1 # y0 $end
$var reg 1 $ y1 $end
$var reg 1 % s0 $end
$var reg 1 & s1 $end
$scope module dut $end
$var reg 1 ' x1 $end
$var reg 1 ( x0 $end
$var reg 1 ) y1 $end
$var reg 1 * y0 $end
$var reg 1 + s1 $end
$var reg 1 , s0 $end
$var reg 1 - w $end
$var reg 1 . z $end
$upscope $end
$enddefinitions $end
#0
0!
0"
0#
0$
0%
0&
0'
0(
0)
0*
0+
0,
0-
0.
#5000000
1#
1%
1*
1,
#10000000
0#
1$
0%
1&
1)
0*
1+
0,
1-
#15000000
1#
1%
1*
1,
#20000000
1!
0#
0$
0&
1(
0)
0*
0+
0-
#25000000
1#
0%
1&
1*
1+
0,
1.
#30000000
0#
1$
1%
1)
0*
1,
1-
0.
#35000000
1#
0%
0&
1*
0+
0,
1.
#40000000
0!
1"
0#
0$
1&
1'
0(
0)
0*
1+
0.
#45000000
1#
1%
1*
1,
#50000000
0#
1$
0%
0&
1)
0*
0+
0,
0-
#55000000
1#
1%
1*
1,
#60000000
1!
0#
0$
1&
1(
0)
0*
1+
1-
#65000000
1#
0%
0&
1*
0+
0,
1.
#70000000
0#
1$
1%
1)
0*
1,
0-
0.
#75000000
1#
0%
1&
1*
1+
0,
1.
