Expt_5/new_try/run.vcd
$date
  Thu Jan 28 16:33:26 2016
$end
$version
  GHDL v0
$end
$timescale
  1 fs
$end
$var reg 1 ! x7 $end
$var reg 1 " x6 $end
$var reg 1 # x5 $end
$var reg 1 $ x4 $end
$var reg 1 % x3 $end
$var reg 1 & x2 $end
$var reg 1 ' x1 $end
$var reg 1 ( x0 $end
$var reg 1 ) s2 $end
$var reg 1 * s1 $end
$var reg 1 + s0 $end
$var reg 1 , n $end
$scope module dut $end
$var reg 1 - x7 $end
$var reg 1 . x6 $end
$var reg 1 / x5 $end
$var reg 1 0 x4 $end
$var reg 1 1 x3 $end
$var reg 1 2 x2 $end
$var reg 1 3 x1 $end
$var reg 1 4 x0 $end
$var reg 1 5 s2 $end
$var reg 1 6 s1 $end
$var reg 1 7 s0 $end
$var reg 1 8 n $end
$upscope $end
$enddefinitions $end
#0
0!
0"
0#
0$
0%
0&
0'
0(
0)
0*
0+
1,
0-
0.
0/
00
01
02
03
04
05
06
07
18
#10000000
1%
1*
1+
0,
11
16
17
08
#20000000
1$
0%
1)
0*
0+
10
01
15
06
07
#30000000
1%
0)
1*
1+
11
05
16
17
#40000000
0$
0%
1&
0+
00
01
12
07
#50000000
1%
11
#60000000
1$
0%
10
01
#70000000
1%
11
#80000000
1#
0$
0%
0&
1)
0*
1+
1/
00
01
02
15
06
17
#90000000
1%
0)
1*
11
05
16
#100000000
1$
0%
1)
0*
0+
10
01
15
06
07
#110000000
1%
0)
1*
1+
11
05
16
17
#120000000
0$
0%
1&
0+
00
01
12
07
#130000000
1%
11
#140000000
1$
0%
10
01
#150000000
1%
11
#160000000
0#
0$
0%
0&
1'
0*
1+
0/
00
01
02
13
06
17
#170000000
1%
11
#180000000
1$
0%
10
01
#190000000
1%
11
#200000000
0$
0%
1&
00
01
12
#210000000
1%
11
#220000000
1$
0%
10
01
#230000000
1%
11
#240000000
1#
0$
0%
0&
1/
00
01
02
#250000000
1%
11
#260000000
1$
0%
10
01
#270000000
1%
11
#280000000
0$
0%
1&
00
01
12
#290000000
1%
11
#300000000
1$
0%
10
01
#310000000
1%
11
#320000000
1"
0#
0$
0%
0&
0'
1)
1*
0+
1.
0/
00
01
02
03
15
16
07
#330000000
1%
0)
1+
11
05
17
#340000000
1$
0%
1)
0*
0+
10
01
15
06
07
#350000000
1%
0)
1*
1+
11
05
16
17
#360000000
0$
0%
1&
0+
00
01
12
07
#370000000
1%
11
#380000000
1$
0%
10
01
#390000000
1%
11
#400000000
1#
0$
0%
0&
1)
0*
1+
1/
00
01
02
15
06
17
#410000000
1%
0)
1*
11
05
16
#420000000
1$
0%
1)
0*
0+
10
01
15
06
07
#430000000
1%
0)
1*
1+
11
05
16
17
#440000000
0$
0%
1&
0+
00
01
12
07
#450000000
1%
11
#460000000
1$
0%
10
01
#470000000
1%
11
#480000000
0#
0$
0%
0&
1'
0*
1+
0/
00
01
02
13
06
17
#490000000
1%
11
#500000000
1$
0%
10
01
#510000000
1%
11
#520000000
0$
0%
1&
00
01
12
#530000000
1%
11
#540000000
1$
0%
10
01
#550000000
1%
11
#560000000
1#
0$
0%
0&
1/
00
01
02
#570000000
1%
11
#580000000
1$
0%
10
01
#590000000
1%
11
#600000000
0$
0%
1&
00
01
12
#610000000
1%
11
#620000000
1$
0%
10
01
#630000000
1%
11
#640000000
0"
0#
0$
0%
0&
0'
1(
0+
0.
0/
00
01
02
03
14
07
#650000000
1%
11
#660000000
1$
0%
10
01
#670000000
1%
11
#680000000
0$
0%
1&
00
01
12
#690000000
1%
11
#700000000
1$
0%
10
01
#710000000
1%
11
#720000000
1#
0$
0%
0&
1/
00
01
02
#730000000
1%
11
#740000000
1$
0%
10
01
#750000000
1%
11
#760000000
0$
0%
1&
00
01
12
#770000000
1%
11
#780000000
1$
0%
10
01
#790000000
1%
11
#800000000
0#
0$
0%
0&
1'
0/
00
01
02
13
#810000000
1%
11
#820000000
1$
0%
10
01
#830000000
1%
11
#840000000
0$
0%
1&
00
01
12
#850000000
1%
11
#860000000
1$
0%
10
01
#870000000
1%
11
#880000000
1#
0$
0%
0&
1/
00
01
02
#890000000
1%
11
#900000000
1$
0%
10
01
#910000000
1%
11
#920000000
0$
0%
1&
00
01
12
#930000000
1%
11
#940000000
1$
0%
10
01
#950000000
1%
11
#960000000
1"
0#
0$
0%
0&
0'
1.
0/
00
01
02
03
#970000000
1%
11
#980000000
1$
0%
10
01
#990000000
1%
11
#1000000000
0$
0%
1&
00
01
12
#1010000000
1%
11
#1020000000
1$
0%
10
01
#1030000000
1%
11
#1040000000
1#
0$
0%
0&
1/
00
01
02
#1050000000
1%
11
#1060000000
1$
0%
10
01
#1070000000
1%
11
#1080000000
0$
0%
1&
00
01
12
#1090000000
1%
11
#1100000000
1$
0%
10
01
#1110000000
1%
11
#1120000000
0#
0$
0%
0&
1'
0/
00
01
02
13
#1130000000
1%
11
#1140000000
1$
0%
10
01
#1150000000
1%
11
#1160000000
0$
0%
1&
00
01
12
#1170000000
1%
11
#1180000000
1$
0%
10
01
#1190000000
1%
11
#1200000000
1#
0$
0%
0&
1/
00
01
02
#1210000000
1%
11
#1220000000
1$
0%
10
01
#1230000000
1%
11
#1240000000
0$
0%
1&
00
01
12
#1250000000
1%
11
#1260000000
1$
0%
10
01
#1270000000
1%
11
#1280000000
1!
0"
0#
0$
0%
0&
0'
0(
1)
1*
1+
1-
0.
0/
00
01
02
03
04
15
16
17
#1290000000
1%
0)
11
05
#1300000000
1$
0%
1)
0*
0+
10
01
15
06
07
#1310000000
1%
0)
1*
1+
11
05
16
17
#1320000000
0$
0%
1&
0+
00
01
12
07
#1330000000
1%
11
#1340000000
1$
0%
10
01
#1350000000
1%
11
#1360000000
1#
0$
0%
0&
1)
0*
1+
1/
00
01
02
15
06
17
#1370000000
1%
0)
1*
11
05
16
#1380000000
1$
0%
1)
0*
0+
10
01
15
06
07
#1390000000
1%
0)
1*
1+
11
05
16
17
#1400000000
0$
0%
1&
0+
00
01
12
07
#1410000000
1%
11
#1420000000
1$
0%
10
01
#1430000000
1%
11
#1440000000
0#
0$
0%
0&
1'
0*
1+
0/
00
01
02
13
06
17
#1450000000
1%
11
#1460000000
1$
0%
10
01
#1470000000
1%
11
#1480000000
0$
0%
1&
00
01
12
#1490000000
1%
11
#1500000000
1$
0%
10
01
#1510000000
1%
11
#1520000000
1#
0$
0%
0&
1/
00
01
02
#1530000000
1%
11
#1540000000
1$
0%
10
01
#1550000000
1%
11
#1560000000
0$
0%
1&
00
01
12
#1570000000
1%
11
#1580000000
1$
0%
10
01
#1590000000
1%
11
#1600000000
1"
0#
0$
0%
0&
0'
1)
1*
0+
1.
0/
00
01
02
03
15
16
07
#1610000000
1%
0)
1+
11
05
17
#1620000000
1$
0%
1)
0*
0+
10
01
15
06
07
#1630000000
1%
0)
1*
1+
11
05
16
17
#1640000000
0$
0%
1&
0+
00
01
12
07
#1650000000
1%
11
#1660000000
1$
0%
10
01
#1670000000
1%
11
#1680000000
1#
0$
0%
0&
1)
0*
1+
1/
00
01
02
15
06
17
#1690000000
1%
0)
1*
11
05
16
#1700000000
1$
0%
1)
0*
0+
10
01
15
06
07
#1710000000
1%
0)
1*
1+
11
05
16
17
#1720000000
0$
0%
1&
0+
00
01
12
07
#1730000000
1%
11
#1740000000
1$
0%
10
01
#1750000000
1%
11
#1760000000
0#
0$
0%
0&
1'
0*
1+
0/
00
01
02
13
06
17
#1770000000
1%
11
#1780000000
1$
0%
10
01
#1790000000
1%
11
#1800000000
0$
0%
1&
00
01
12
#1810000000
1%
11
#1820000000
1$
0%
10
01
#1830000000
1%
11
#1840000000
1#
0$
0%
0&
1/
00
01
02
#1850000000
1%
11
#1860000000
1$
0%
10
01
#1870000000
1%
11
#1880000000
0$
0%
1&
00
01
12
#1890000000
1%
11
#1900000000
1$
0%
10
01
#1910000000
1%
11
#1920000000
0"
0#
0$
0%
0&
0'
1(
0+
0.
0/
00
01
02
03
14
07
#1930000000
1%
11
#1940000000
1$
0%
10
01
#1950000000
1%
11
#1960000000
0$
0%
1&
00
01
12
#1970000000
1%
11
#1980000000
1$
0%
10
01
#1990000000
1%
11
#2000000000
1#
0$
0%
0&
1/
00
01
02
#2010000000
1%
11
#2020000000
1$
0%
10
01
#2030000000
1%
11
#2040000000
0$
0%
1&
00
01
12
#2050000000
1%
11
#2060000000
1$
0%
10
01
#2070000000
1%
11
#2080000000
0#
0$
0%
0&
1'
0/
00
01
02
13
#2090000000
1%
11
#2100000000
1$
0%
10
01
#2110000000
1%
11
#2120000000
0$
0%
1&
00
01
12
#2130000000
1%
11
#2140000000
1$
0%
10
01
#2150000000
1%
11
#2160000000
1#
0$
0%
0&
1/
00
01
02
#2170000000
1%
11
#2180000000
1$
0%
10
01
#2190000000
1%
11
#2200000000
0$
0%
1&
00
01
12
#2210000000
1%
11
#2220000000
1$
0%
10
01
#2230000000
1%
11
#2240000000
1"
0#
0$
0%
0&
0'
1.
0/
00
01
02
03
#2250000000
1%
11
#2260000000
1$
0%
10
01
#2270000000
1%
11
#2280000000
0$
0%
1&
00
01
12
#2290000000
1%
11
#2300000000
1$
0%
10
01
#2310000000
1%
11
#2320000000
1#
0$
0%
0&
1/
00
01
02
#2330000000
1%
11
#2340000000
1$
0%
10
01
#2350000000
1%
11
#2360000000
0$
0%
1&
00
01
12
#2370000000
1%
11
#2380000000
1$
0%
10
01
#2390000000
1%
11
#2400000000
0#
0$
0%
0&
1'
0/
00
01
02
13
#2410000000
1%
11
#2420000000
1$
0%
10
01
#2430000000
1%
11
#2440000000
0$
0%
1&
00
01
12
#2450000000
1%
11
#2460000000
1$
0%
10
01
#2470000000
1%
11
#2480000000
1#
0$
0%
0&
1/
00
01
02
#2490000000
1%
11
#2500000000
1$
0%
10
01
#2510000000
1%
11
#2520000000
0$
0%
1&
00
01
12
#2530000000
1%
11
#2540000000
1$
0%
10
01
#2550000000
1%
11
