VHDL/lab5_2/run.vcd
$date
  Thu Jan 28 16:56:52 2016
$end
$version
  GHDL v0
$end
$timescale
  1 fs
$end
$var reg 1 ! x7 $end
$var reg 1 " x6 $end
$var reg 1 # x5 $end
$var reg 1 $ x4 $end
$var reg 1 % x3 $end
$var reg 1 & x2 $end
$var reg 1 ' x1 $end
$var reg 1 ( x0 $end
$var reg 1 ) s2 $end
$var reg 1 * s1 $end
$var reg 1 + s0 $end
$var reg 1 , n $end
$scope module dut $end
$var reg 1 - x7 $end
$var reg 1 . x6 $end
$var reg 1 / x5 $end
$var reg 1 0 x4 $end
$var reg 1 1 x3 $end
$var reg 1 2 x2 $end
$var reg 1 3 x1 $end
$var reg 1 4 x0 $end
$var reg 1 5 s2 $end
$var reg 1 6 s1 $end
$var reg 1 7 s0 $end
$var reg 1 8 n $end
$upscope $end
$enddefinitions $end
#0
0!
0"
0#
0$
0%
0&
0'
0(
0)
0*
0+
1,
0-
0.
0/
00
01
02
03
04
05
06
07
18
#10000000
1(
0,
14
08
#20000000
1'
0(
1+
13
04
17
#30000000
1(
0+
14
07
#40000000
1&
0'
0(
1*
12
03
04
16
#50000000
1(
0*
14
06
#60000000
1'
0(
1+
13
04
17
#70000000
1(
0+
14
07
#80000000
1%
0&
0'
0(
1*
1+
11
02
03
04
16
17
#90000000
1(
0*
0+
14
06
07
#100000000
1'
0(
1+
13
04
17
#110000000
1(
0+
14
07
#120000000
1&
0'
0(
1*
12
03
04
16
#130000000
1(
0*
14
06
#140000000
1'
0(
1+
13
04
17
#150000000
1(
0+
14
07
#160000000
1$
0%
0&
0'
0(
1)
10
01
02
03
04
15
#170000000
1(
0)
14
05
#180000000
1'
0(
1+
13
04
17
#190000000
1(
0+
14
07
#200000000
1&
0'
0(
1*
12
03
04
16
#210000000
1(
0*
14
06
#220000000
1'
0(
1+
13
04
17
#230000000
1(
0+
14
07
#240000000
1%
0&
0'
0(
1*
1+
11
02
03
04
16
17
#250000000
1(
0*
0+
14
06
07
#260000000
1'
0(
1+
13
04
17
#270000000
1(
0+
14
07
#280000000
1&
0'
0(
1*
12
03
04
16
#290000000
1(
0*
14
06
#300000000
1'
0(
1+
13
04
17
#310000000
1(
0+
14
07
#320000000
1#
0$
0%
0&
0'
0(
1)
1+
1/
00
01
02
03
04
15
17
#330000000
1(
0)
0+
14
05
07
#340000000
1'
0(
1+
13
04
17
#350000000
1(
0+
14
07
#360000000
1&
0'
0(
1*
12
03
04
16
#370000000
1(
0*
14
06
#380000000
1'
0(
1+
13
04
17
#390000000
1(
0+
14
07
#400000000
1%
0&
0'
0(
1*
1+
11
02
03
04
16
17
#410000000
1(
0*
0+
14
06
07
#420000000
1'
0(
1+
13
04
17
#430000000
1(
0+
14
07
#440000000
1&
0'
0(
1*
12
03
04
16
#450000000
1(
0*
14
06
#460000000
1'
0(
1+
13
04
17
#470000000
1(
0+
14
07
#480000000
1$
0%
0&
0'
0(
1)
10
01
02
03
04
15
#490000000
1(
0)
14
05
#500000000
1'
0(
1+
13
04
17
#510000000
1(
0+
14
07
#520000000
1&
0'
0(
1*
12
03
04
16
#530000000
1(
0*
14
06
#540000000
1'
0(
1+
13
04
17
#550000000
1(
0+
14
07
#560000000
1%
0&
0'
0(
1*
1+
11
02
03
04
16
17
#570000000
1(
0*
0+
14
06
07
#580000000
1'
0(
1+
13
04
17
#590000000
1(
0+
14
07
#600000000
1&
0'
0(
1*
12
03
04
16
#610000000
1(
0*
14
06
#620000000
1'
0(
1+
13
04
17
#630000000
1(
0+
14
07
#640000000
1"
0#
0$
0%
0&
0'
0(
1)
1*
1.
0/
00
01
02
03
04
15
16
#650000000
1(
0)
0*
14
05
06
#660000000
1'
0(
1+
13
04
17
#670000000
1(
0+
14
07
#680000000
1&
0'
0(
1*
12
03
04
16
#690000000
1(
0*
14
06
#700000000
1'
0(
1+
13
04
17
#710000000
1(
0+
14
07
#720000000
1%
0&
0'
0(
1*
1+
11
02
03
04
16
17
#730000000
1(
0*
0+
14
06
07
#740000000
1'
0(
1+
13
04
17
#750000000
1(
0+
14
07
#760000000
1&
0'
0(
1*
12
03
04
16
#770000000
1(
0*
14
06
#780000000
1'
0(
1+
13
04
17
#790000000
1(
0+
14
07
#800000000
1$
0%
0&
0'
0(
1)
10
01
02
03
04
15
#810000000
1(
0)
14
05
#820000000
1'
0(
1+
13
04
17
#830000000
1(
0+
14
07
#840000000
1&
0'
0(
1*
12
03
04
16
#850000000
1(
0*
14
06
#860000000
1'
0(
1+
13
04
17
#870000000
1(
0+
14
07
#880000000
1%
0&
0'
0(
1*
1+
11
02
03
04
16
17
#890000000
1(
0*
0+
14
06
07
#900000000
1'
0(
1+
13
04
17
#910000000
1(
0+
14
07
#920000000
1&
0'
0(
1*
12
03
04
16
#930000000
1(
0*
14
06
#940000000
1'
0(
1+
13
04
17
#950000000
1(
0+
14
07
#960000000
1#
0$
0%
0&
0'
0(
1)
1+
1/
00
01
02
03
04
15
17
#970000000
1(
0)
0+
14
05
07
#980000000
1'
0(
1+
13
04
17
#990000000
1(
0+
14
07
#1000000000
1&
0'
0(
1*
12
03
04
16
#1010000000
1(
0*
14
06
#1020000000
1'
0(
1+
13
04
17
#1030000000
1(
0+
14
07
#1040000000
1%
0&
0'
0(
1*
1+
11
02
03
04
16
17
#1050000000
1(
0*
0+
14
06
07
#1060000000
1'
0(
1+
13
04
17
#1070000000
1(
0+
14
07
#1080000000
1&
0'
0(
1*
12
03
04
16
#1090000000
1(
0*
14
06
#1100000000
1'
0(
1+
13
04
17
#1110000000
1(
0+
14
07
#1120000000
1$
0%
0&
0'
0(
1)
10
01
02
03
04
15
#1130000000
1(
0)
14
05
#1140000000
1'
0(
1+
13
04
17
#1150000000
1(
0+
14
07
#1160000000
1&
0'
0(
1*
12
03
04
16
#1170000000
1(
0*
14
06
#1180000000
1'
0(
1+
13
04
17
#1190000000
1(
0+
14
07
#1200000000
1%
0&
0'
0(
1*
1+
11
02
03
04
16
17
#1210000000
1(
0*
0+
14
06
07
#1220000000
1'
0(
1+
13
04
17
#1230000000
1(
0+
14
07
#1240000000
1&
0'
0(
1*
12
03
04
16
#1250000000
1(
0*
14
06
#1260000000
1'
0(
1+
13
04
17
#1270000000
1(
0+
14
07
#1280000000
1!
0"
0#
0$
0%
0&
0'
0(
1)
1*
1+
1-
0.
0/
00
01
02
03
04
15
16
17
#1290000000
1(
0)
0*
0+
14
05
06
07
#1300000000
1'
0(
1+
13
04
17
#1310000000
1(
0+
14
07
#1320000000
1&
0'
0(
1*
12
03
04
16
#1330000000
1(
0*
14
06
#1340000000
1'
0(
1+
13
04
17
#1350000000
1(
0+
14
07
#1360000000
1%
0&
0'
0(
1*
1+
11
02
03
04
16
17
#1370000000
1(
0*
0+
14
06
07
#1380000000
1'
0(
1+
13
04
17
#1390000000
1(
0+
14
07
#1400000000
1&
0'
0(
1*
12
03
04
16
#1410000000
1(
0*
14
06
#1420000000
1'
0(
1+
13
04
17
#1430000000
1(
0+
14
07
#1440000000
1$
0%
0&
0'
0(
1)
10
01
02
03
04
15
#1450000000
1(
0)
14
05
#1460000000
1'
0(
1+
13
04
17
#1470000000
1(
0+
14
07
#1480000000
1&
0'
0(
1*
12
03
04
16
#1490000000
1(
0*
14
06
#1500000000
1'
0(
1+
13
04
17
#1510000000
1(
0+
14
07
#1520000000
1%
0&
0'
0(
1*
1+
11
02
03
04
16
17
#1530000000
1(
0*
0+
14
06
07
#1540000000
1'
0(
1+
13
04
17
#1550000000
1(
0+
14
07
#1560000000
1&
0'
0(
1*
12
03
04
16
#1570000000
1(
0*
14
06
#1580000000
1'
0(
1+
13
04
17
#1590000000
1(
0+
14
07
#1600000000
1#
0$
0%
0&
0'
0(
1)
1+
1/
00
01
02
03
04
15
17
#1610000000
1(
0)
0+
14
05
07
#1620000000
1'
0(
1+
13
04
17
#1630000000
1(
0+
14
07
#1640000000
1&
0'
0(
1*
12
03
04
16
#1650000000
1(
0*
14
06
#1660000000
1'
0(
1+
13
04
17
#1670000000
1(
0+
14
07
#1680000000
1%
0&
0'
0(
1*
1+
11
02
03
04
16
17
#1690000000
1(
0*
0+
14
06
07
#1700000000
1'
0(
1+
13
04
17
#1710000000
1(
0+
14
07
#1720000000
1&
0'
0(
1*
12
03
04
16
#1730000000
1(
0*
14
06
#1740000000
1'
0(
1+
13
04
17
#1750000000
1(
0+
14
07
#1760000000
1$
0%
0&
0'
0(
1)
10
01
02
03
04
15
#1770000000
1(
0)
14
05
#1780000000
1'
0(
1+
13
04
17
#1790000000
1(
0+
14
07
#1800000000
1&
0'
0(
1*
12
03
04
16
#1810000000
1(
0*
14
06
#1820000000
1'
0(
1+
13
04
17
#1830000000
1(
0+
14
07
#1840000000
1%
0&
0'
0(
1*
1+
11
02
03
04
16
17
#1850000000
1(
0*
0+
14
06
07
#1860000000
1'
0(
1+
13
04
17
#1870000000
1(
0+
14
07
#1880000000
1&
0'
0(
1*
12
03
04
16
#1890000000
1(
0*
14
06
#1900000000
1'
0(
1+
13
04
17
#1910000000
1(
0+
14
07
#1920000000
1"
0#
0$
0%
0&
0'
0(
1)
1*
1.
0/
00
01
02
03
04
15
16
#1930000000
1(
0)
0*
14
05
06
#1940000000
1'
0(
1+
13
04
17
#1950000000
1(
0+
14
07
#1960000000
1&
0'
0(
1*
12
03
04
16
#1970000000
1(
0*
14
06
#1980000000
1'
0(
1+
13
04
17
#1990000000
1(
0+
14
07
#2000000000
1%
0&
0'
0(
1*
1+
11
02
03
04
16
17
#2010000000
1(
0*
0+
14
06
07
#2020000000
1'
0(
1+
13
04
17
#2030000000
1(
0+
14
07
#2040000000
1&
0'
0(
1*
12
03
04
16
#2050000000
1(
0*
14
06
#2060000000
1'
0(
1+
13
04
17
#2070000000
1(
0+
14
07
#2080000000
1$
0%
0&
0'
0(
1)
10
01
02
03
04
15
#2090000000
1(
0)
14
05
#2100000000
1'
0(
1+
13
04
17
#2110000000
1(
0+
14
07
#2120000000
1&
0'
0(
1*
12
03
04
16
#2130000000
1(
0*
14
06
#2140000000
1'
0(
1+
13
04
17
#2150000000
1(
0+
14
07
#2160000000
1%
0&
0'
0(
1*
1+
11
02
03
04
16
17
#2170000000
1(
0*
0+
14
06
07
#2180000000
1'
0(
1+
13
04
17
#2190000000
1(
0+
14
07
#2200000000
1&
0'
0(
1*
12
03
04
16
#2210000000
1(
0*
14
06
#2220000000
1'
0(
1+
13
04
17
#2230000000
1(
0+
14
07
#2240000000
1#
0$
0%
0&
0'
0(
1)
1+
1/
00
01
02
03
04
15
17
#2250000000
1(
0)
0+
14
05
07
#2260000000
1'
0(
1+
13
04
17
#2270000000
1(
0+
14
07
#2280000000
1&
0'
0(
1*
12
03
04
16
#2290000000
1(
0*
14
06
#2300000000
1'
0(
1+
13
04
17
#2310000000
1(
0+
14
07
#2320000000
1%
0&
0'
0(
1*
1+
11
02
03
04
16
17
#2330000000
1(
0*
0+
14
06
07
#2340000000
1'
0(
1+
13
04
17
#2350000000
1(
0+
14
07
#2360000000
1&
0'
0(
1*
12
03
04
16
#2370000000
1(
0*
14
06
#2380000000
1'
0(
1+
13
04
17
#2390000000
1(
0+
14
07
#2400000000
1$
0%
0&
0'
0(
1)
10
01
02
03
04
15
#2410000000
1(
0)
14
05
#2420000000
1'
0(
1+
13
04
17
#2430000000
1(
0+
14
07
#2440000000
1&
0'
0(
1*
12
03
04
16
#2450000000
1(
0*
14
06
#2460000000
1'
0(
1+
13
04
17
#2470000000
1(
0+
14
07
#2480000000
1%
0&
0'
0(
1*
1+
11
02
03
04
16
17
#2490000000
1(
0*
0+
14
06
07
#2500000000
1'
0(
1+
13
04
17
#2510000000
1(
0+
14
07
#2520000000
1&
0'
0(
1*
12
03
04
16
#2530000000
1(
0*
14
06
#2540000000
1'
0(
1+
13
04
17
#2550000000
1(
0+
14
07
